<?xml version="1.0" encoding="UTF-8" standalone="no"?>
<svg
   xmlns:dc="http://purl.org/dc/elements/1.1/"
   xmlns:cc="http://creativecommons.org/ns#"
   xmlns:rdf="http://www.w3.org/1999/02/22-rdf-syntax-ns#"
   xmlns:svg="http://www.w3.org/2000/svg"
   xmlns="http://www.w3.org/2000/svg"
   xmlns:xlink="http://www.w3.org/1999/xlink"
   xmlns:sodipodi="http://sodipodi.sourceforge.net/DTD/sodipodi-0.dtd"
   xmlns:inkscape="http://www.inkscape.org/namespaces/inkscape"
   data-v-fde0c5aa=""
   viewBox="0 0 300 300"
   class="iconAbove"
   version="1.1"
   id="svg18"
   sodipodi:docname="logo_only.svg"
   inkscape:version="0.92.5 (2060ec1f9f, 2020-04-08)"
   inkscape:export-filename="/home/sergio/Desktop/hive-open-stats/vector/default.png"
   inkscape:export-xdpi="327"
   inkscape:export-ydpi="327">
  <metadata
     id="metadata22">
    <rdf:RDF>
      <cc:Work
         rdf:about="">
        <dc:format>image/svg+xml</dc:format>
        <dc:type
           rdf:resource="http://purl.org/dc/dcmitype/StillImage" />
        <dc:title></dc:title>
      </cc:Work>
    </rdf:RDF>
  </metadata>
  <sodipodi:namedview
     pagecolor="#ffffff"
     bordercolor="#666666"
     borderopacity="1"
     objecttolerance="10"
     gridtolerance="10"
     guidetolerance="10"
     inkscape:pageopacity="0"
     inkscape:pageshadow="2"
     inkscape:window-width="4096"
     inkscape:window-height="2176"
     id="namedview20"
     showgrid="false"
     inkscape:zoom="3.1466667"
     inkscape:cx="74.552093"
     inkscape:cy="124.7958"
     inkscape:window-x="0"
     inkscape:window-y="0"
     inkscape:window-maximized="1"
     inkscape:current-layer="svg18" />
  <!---->
  <defs
     data-v-fde0c5aa=""
     id="defs2">
    <linearGradient
       inkscape:collect="always"
       id="linearGradient855">
      <stop
         style="stop-color:#2b0000;stop-opacity:1"
         offset="0"
         id="stop851" />
      <stop
         style="stop-color:#550000;stop-opacity:1"
         offset="1"
         id="stop853" />
    </linearGradient>
    <!---->
    <linearGradient
       inkscape:collect="always"
       xlink:href="#linearGradient855"
       id="linearGradient857"
       x1="84.942703"
       y1="-7.4116774"
       x2="206.73885"
       y2="304.49432"
       gradientUnits="userSpaceOnUse" />
  </defs>
  <rect
     data-v-fde0c5aa=""
     fill="#AD0023"
     x="0"
     y="0"
     width="300px"
     height="300px"
     class="logo-background-square"
     id="rect4"
     style="fill-opacity:1;fill:url(#linearGradient857)" />
  <g
     id="g873"
     transform="matrix(2.1828746,0,0,2.1828746,-177.43119,-136.48679)">
    <g
       style="fill:#e31337;fill-opacity:1;stroke:none"
       transform="matrix(2.7277914,0,0,2.7277914,84.535613,65.775905)"
       id="c74fe5d2-be6c-44af-9dbe-52d90f8fb014"
       data-v-fde0c5aa="">
      <path
         style="fill:#e31337;fill-opacity:1"
         inkscape:connector-curvature="0"
         id="path13"
         d="m 42.6,9.6 c 0,0 -0.1,0.1 0,0 l -5.8,5.5 c 1.1,1.5 1.9,3.2 2.5,5 1,3.4 0.8,7 -0.5,10.3 L 45.3,34 C 49.1,25.8 47.8,16.4 42.6,9.6 Z M 21.8,0.7 23.4,8.6 h 0.5 c 2.7,0 5.3,0.7 7.7,2 0.9,0.5 1.7,1 2.4,1.7 L 39.7,6.9 39.8,6.8 C 38.4,5.5 36.9,4.4 35.2,3.5 31.9,1.5 28,0.5 24,0.5 c -0.7,0 -1.5,0 -2.2,0.1 z m 15,33.1 c -3,4.1 -7.7,6.5 -12.8,6.5 -2.7,0 -5.3,-0.7 -7.7,-2 C 9.2,34.4 6.3,25.8 9.3,18.5 L 2.4,14.7 c -4.7,11 -0.4,24 10.2,29.9 3.5,1.9 7.4,2.9 11.4,2.9 7.8,0 15,-3.8 19.3,-10.1 z" />
      <path
         style="fill:#e31337;fill-opacity:1"
         inkscape:connector-curvature="0"
         id="path15"
         d="M 29.8,14 C 28,13 26,12.5 24,12.5 c -4.4,0 -8.4,2.4 -10.5,6.2 -3.2,5.8 -1.1,13.1 4.7,16.3 1.8,1 3.8,1.5 5.8,1.5 4.4,0 8.4,-2.4 10.5,-6.2 1.5,-2.8 1.9,-6 1,-9.1 -0.9,-3.1 -2.9,-5.7 -5.7,-7.2 z m -18.6,1.1 c 2.1,-2.9 5.1,-4.9 8.4,-5.9 L 18,1.5 V 1.3 c -5.6,1.5 -10.5,5 -13.7,10 z" />
    </g>
    <g
       transform="matrix(0.20390683,0,0,0.20390683,127.57025,113.19759)"
       style="fill:#ffffff"
       id="g4677">
      <path
         style="fill:#ffffff"
         inkscape:connector-curvature="0"
         d="m 157.27262,107.26394 c 0.72637,0 1.18,0.78752 0.81612,1.41681 l -46.75035,80.84819 C 111.16981,189.82048 110.8588,190 110.52228,190 H 81.944381 c -0.726367,0 -1.179995,-0.78752 -0.816111,-1.41681 L 127.87862,107.735 c 0.16858,-0.29154 0.47959,-0.47106 0.81611,-0.47106 z m -27.7949,-23.173803 c -0.33651,0 -0.64753,-0.179515 -0.81611,-0.471055 L 81.12827,1.4168088 C 80.764386,0.78752151 81.218014,0 81.944381,0 h 28.577899 c 0.33652,0 0.64753,0.17951487 0.81611,0.4710549 l 47.53334,82.2022731 c 0.36388,0.629287 -0.0897,1.416809 -0.81611,1.416809 z"
         id="path4673" />
      <path
         style="fill:#ffffff"
         inkscape:connector-curvature="0"
         d="M 135.12841,1.416352 C 134.76385,0.78706423 135.21893,0 135.94734,0 h 28.61861 c 0.33776,0 0.64989,0.17971418 0.81894,0.47151174 L 219.87301,94.52758 c 0.16932,0.292284 0.16932,0.652556 0,0.94484 l -54.48812,94.05607 C 165.21584,189.82029 164.90371,190 164.56595,190 h -28.61861 c -0.72841,0 -1.18349,-0.78706 -0.81893,-1.41635 L 189.34284,95 Z m -23.25819,93.10773 c 0.17223,0.29267 0.17309,0.654477 0.002,0.947956 L 57.125226,189.52811 c -0.36523,0.62746 -1.277385,0.62961 -1.645617,0.004 L 0.12978361,95.475918 c -0.17222938,-0.29267 -0.17309611,-0.654477 -0.002271,-0.947956 L 54.874774,0.47189426 c 0.36523,-0.62746669 1.277385,-0.62961739 1.645617,-0.00388 z"
         id="path4675" />
    </g>
  </g>
  <defs
     data-v-fde0c5aa=""
     id="defs6">
    <!---->
  </defs>
  <defs
     data-v-fde0c5aa=""
     id="defs11">
    <!---->
  </defs>
  <!---->
</svg>
