<?xml version="1.0" encoding="UTF-8" standalone="no"?>
<!-- Created with Inkscape (http://www.inkscape.org/) -->

<svg
   xmlns:dc="http://purl.org/dc/elements/1.1/"
   xmlns:cc="http://creativecommons.org/ns#"
   xmlns:rdf="http://www.w3.org/1999/02/22-rdf-syntax-ns#"
   xmlns:svg="http://www.w3.org/2000/svg"
   xmlns="http://www.w3.org/2000/svg"
   xmlns:sodipodi="http://sodipodi.sourceforge.net/DTD/sodipodi-0.dtd"
   xmlns:inkscape="http://www.inkscape.org/namespaces/inkscape"
   version="1.1"
   id="svg2"
   xml:space="preserve"
   width="48"
   height="48"
   viewBox="0 0 48.000002 48"
   sodipodi:docname="peakd_white.svg"
   inkscape:version="0.92.5 (2060ec1f9f, 2020-04-08)"><metadata
     id="metadata8"><rdf:RDF><cc:Work
         rdf:about=""><dc:format>image/svg+xml</dc:format><dc:type
           rdf:resource="http://purl.org/dc/dcmitype/StillImage" /><dc:title></dc:title></cc:Work></rdf:RDF></metadata><defs
     id="defs6" /><sodipodi:namedview
     pagecolor="#ffffff"
     bordercolor="#666666"
     borderopacity="1"
     objecttolerance="10"
     gridtolerance="10"
     guidetolerance="10"
     inkscape:pageopacity="0"
     inkscape:pageshadow="2"
     inkscape:window-width="1518"
     inkscape:window-height="772"
     id="namedview4"
     showgrid="false"
     inkscape:zoom="9.0368128"
     inkscape:cx="-25.596534"
     inkscape:cy="20.414958"
     inkscape:window-x="331"
     inkscape:window-y="88"
     inkscape:window-maximized="0"
     inkscape:current-layer="g10" /><g
     id="g10"
     inkscape:groupmode="layer"
     inkscape:label="PEAKD_updated"
     transform="matrix(1.3333333,0,0,-1.3333333,0,47.999994)"><g
       id="g943"
       transform="matrix(1.4071004,0,0,1.4071004,-8.110232,-7.8127579)"
       style="fill:#ffffff"><path
         inkscape:connector-curvature="0"
         id="path20"
         style="fill:#ffffff;fill-opacity:1;fill-rule:evenodd;stroke:none;stroke-width:0.124659"
         d="m 18.626724,28.195882 3.07272,-4.819878 -3.07272,-4.81989 -3.072707,4.81989 z" /><path
         inkscape:connector-curvature="0"
         id="path22"
         style="fill:#ffffff;fill-opacity:1;fill-rule:evenodd;stroke:none;stroke-width:0.124659"
         d="m 21.939026,22.978217 2.900266,-4.549418 -2.900266,-4.54943 -2.900279,4.54943 z" /><path
         inkscape:connector-curvature="0"
         id="path24"
         style="fill:#ffffff;fill-opacity:1;fill-rule:evenodd;stroke:none;stroke-width:0.124659"
         d="m 15.256269,22.978217 2.900279,-4.549418 -2.900279,-4.54943 -2.900304,4.54943 z" /><path
         inkscape:connector-curvature="0"
         id="path26"
         style="fill:#ffffff;fill-opacity:1;fill-rule:evenodd;stroke:none;stroke-width:0.124659"
         d="M 12.042111,17.912562 14.942378,13.363144 11.843517,8.4934028 H 6.0635027 Z" /><path
         inkscape:connector-curvature="0"
         id="path28"
         style="fill:#ffffff;fill-opacity:1;fill-rule:evenodd;stroke:none;stroke-width:0.124659"
         d="m 25.069974,17.912562 -2.900279,-4.549418 3.098898,-4.8697412 h 5.780014 z" /></g></g></svg>